{
  "project_info": {
    "project_number": "122750239844",
    "firebase_url": "https://auth-tokotani.firebaseio.com",
    "project_id": "auth-tokotani",
    "storage_bucket": "auth-tokotani.appspot.com"
  },
  "client": [
    {
      "client_info": {
        "mobilesdk_app_id": "1:122750239844:android:374cd019920439b6",
        "android_client_info": {
          "package_name": "com.example.android.tokotani"
        }
      },
      "oauth_client": [
        {
          "client_id": "122750239844-jtslaurbdmjof4e3l3isg3pivlvo18cr.apps.googleusercontent.com",
          "client_type": 1,
          "android_info": {
            "package_name": "com.example.android.tokotani",
            "certificate_hash": "b802223278824e9ab766354908695fbd5c9e8225"
          }
        },
        {
          "client_id": "122750239844-155mc46a8hpnm8ekeildatqp12ssurvc.apps.googleusercontent.com",
          "client_type": 3
        }
      ],
      "api_key": [
        {
          "current_key": "AIzaSyATrgPpx7UgDAhmBAj4ZT8iMGGaBq32flY"
        }
      ],
      "services": {
        "analytics_service": {
          "status": 1
        },
        "appinvite_service": {
          "status": 2,
          "other_platform_oauth_client": [
            {
              "client_id": "122750239844-155mc46a8hpnm8ekeildatqp12ssurvc.apps.googleusercontent.com",
              "client_type": 3
            }
          ]
        },
        "ads_service": {
          "status": 2
        }
      }
    }
  ],
  "configuration_version": "1"
}